[
    {
        "Station": "Третьяковская",
        "Line": "Калининская линия",
        "Status": "действует",
        "AdmArea": "Центральный административный округ",
        "District": "район Замоскворечье",
        "ID": 136,
        "global_id": 58701962
    },
    {
        "Station": "Медведково",
        "Line": "Калужско-Рижская линия",
        "Status": "действует",
        "AdmArea": "Северо-Восточный административный округ",
        "District": "район Северное Медведково",
        "ID": 86,
        "global_id": 58701963
    },
    {
        "Station": "Первомайская",
        "Line": "Арбатско-Покровская линия",
        "Status": "действует",
        "AdmArea": "Восточный административный округ",
        "District": "район Измайлово",
        "ID": 41,
        "global_id": 58701964
    },
    {
        "Station": "Калужская",
        "Line": "Калужско-Рижская линия",
        "Status": "действует",
        "AdmArea": "Юго-Западный административный округ",
        "District": "Обручевский район",
        "ID": 104,
        "global_id": 58701965
    },
    {
        "Station": "Каховская",
        "Line": "Большая кольцевая линия",
        "Status": "строится",
        "AdmArea": "Юго-Западный административный округ",
        "District": "район Зюзино",
        "ID": 251,
        "global_id": 58701966
    },
    {
        "Station": "Бульвар адмирала Ушакова",
        "Line": "Бутовская линия Лёгкого метро",
        "Status": "действует",
        "AdmArea": "Юго-Западный административный округ",
        "District": "район Южное Бутово",
        "ID": 184,
        "global_id": 58701967
    },
    {
        "Station": "Павелецкая",
        "Line": "Замоскворецкая линия",
        "Status": "действует",
        "AdmArea": "Центральный административный округ",
        "District": "район Замоскворечье",
        "ID": 28,
        "global_id": 58701968
    },
    {
        "Station": "Волжская",
        "Line": "Люблинско-Дмитровская линия",
        "Status": "действует",
        "AdmArea": "Юго-Восточный административный округ",
        "District": "район Кузьминки",
        "ID": 172,
        "global_id": 58701969
    },
    {
        "Station": "Шаболовская",
        "Line": "Калужско-Рижская линия",
        "Status": "действует",
        "AdmArea": "Южный административный округ",
        "District": "Донской район",
        "ID": 99,
        "global_id": 58701970
    },
    {
        "Station": "Плющиха",
        "Line": "Солнцевская линия",
        "Status": "строится",
        "AdmArea": "Центральный административный округ",
        "District": "район Арбат",
        "ID": 221,
        "global_id": 58701971
    },
    {
        "Station": "Тимирязевская",
        "Line": "Серпуховско-Тимирязевская линия",
        "Status": "действует",
        "AdmArea": "Северный административный округ",
        "District": "Тимирязевский район",
        "ID": 142,
        "global_id": 58701972
    },
    {
        "Station": "ВДНХ",
        "Line": "Калужско-Рижская линия",
        "Status": "действует",
        "AdmArea": "Северо-Восточный административный округ",
        "District": "Останкинский район",
        "ID": 90,
        "global_id": 58701973
    },
    {
        "Station": "Тверская",
        "Line": "Замоскворецкая линия",
        "Status": "действует",
        "AdmArea": "Центральный административный округ",
        "District": "Тверской район",
        "ID": 31,
        "global_id": 58701974
    },
    {
        "Station": "Фонвизинская",
        "Line": "Люблинско-Дмитровская линия",
        "Status": "действует",
        "AdmArea": "Северо-Восточный административный округ",
        "District": "Бутырский район",
        "ID": 208,
        "global_id": 58701975
    },
    {
        "Station": "Воронцовская",
        "Line": "Большая кольцевая линия",
        "Status": "строится",
        "AdmArea": "Юго-Западный административный округ",
        "District": "Обручевский район",
        "ID": 249,
        "global_id": 58701976
    },
    {
        "Station": "Дмитровская",
        "Line": "Серпуховско-Тимирязевская линия",
        "Status": "действует",
        "AdmArea": "Северо-Восточный административный округ",
        "District": "Бутырский район",
        "ID": 143,
        "global_id": 58701978
    },
    {
        "Station": "Новые Черёмушки",
        "Line": "Калужско-Рижская линия",
        "Status": "действует",
        "AdmArea": "Юго-Западный административный округ",
        "District": "район Черёмушки",
        "ID": 103,
        "global_id": 58701979
    },
    {
        "Station": "Улица Милашенкова",
        "Line": "Московская монорельсовая транспортная система",
        "Status": "действует",
        "AdmArea": "Северо-Восточный административный округ",
        "District": "Бутырский район",
        "ID": 191,
        "global_id": 58701980
    },
    {
        "Station": "Пушкинская",
        "Line": "Таганско-Краснопресненская линия",
        "Status": "действует",
        "AdmArea": "Центральный административный округ",
        "District": "Тверской район",
        "ID": 119,
        "global_id": 58701981
    },
    {
        "Station": "Маяковская",
        "Line": "Замоскворецкая линия",
        "Status": "действует",
        "AdmArea": "Центральный административный округ",
        "District": "Тверской район",
        "ID": 32,
        "global_id": 58701982
    },
    {
        "Station": "Нижегородская",
        "Line": "Некрасовская линия",
        "Status": "действует",
        "AdmArea": "Юго-Восточный административный округ",
        "District": "Нижегородский район",
        "ID": 231,
        "global_id": 58701983
    },
    {
        "Station": "Ботанический сад",
        "Line": "Калужско-Рижская линия",
        "Status": "действует",
        "AdmArea": "Северо-Восточный административный округ",
        "District": "район Свиблово",
        "ID": 89,
        "global_id": 58701984
    },
    {
        "Station": "Нижегородская улица",
        "Line": "Большая кольцевая линия",
        "Status": "строится",
        "AdmArea": "Юго-Восточный административный округ",
        "District": "Нижегородский район",
        "ID": 256,
        "global_id": 58701985
    },
    {
        "Station": "Белорусская",
        "Line": "Замоскворецкая линия",
        "Status": "действует",
        "AdmArea": "Центральный административный округ",
        "District": "Тверской район",
        "ID": 33,
        "global_id": 58701986
    },
    {
        "Station": "Варшавская",
        "Line": "Каховская линия",
        "Status": "действует",
        "AdmArea": "Южный административный округ",
        "District": "район Москворечье-Сабурово",
        "ID": 180,
        "global_id": 58701987
    },
    {
        "Station": "Красногвардейская",
        "Line": "Замоскворецкая линия",
        "Status": "действует",
        "AdmArea": "Южный административный округ",
        "District": "район Зябликово",
        "ID": 20,
        "global_id": 58701988
    },
    {
        "Station": "Комсомольская",
        "Line": "Сокольническая линия",
        "Status": "действует",
        "AdmArea": "Центральный административный округ",
        "District": "Красносельский район",
        "ID": 6,
        "global_id": 58701989
    },
    {
        "Station": "Нагатинская",
        "Line": "Серпуховско-Тимирязевская линия",
        "Status": "действует",
        "AdmArea": "Южный административный округ",
        "District": "Нагорный район",
        "ID": 152,
        "global_id": 58701990
    },
    {
        "Station": "Алтуфьево",
        "Line": "Серпуховско-Тимирязевская линия",
        "Status": "действует",
        "AdmArea": "Северо-Восточный административный округ",
        "District": "район Бибирево",
        "ID": 137,
        "global_id": 58701991
    },
    {
        "Station": "Новопеределкино",
        "Line": "Солнцевская линия",
        "Status": "действует",
        "AdmArea": "Западный административный округ",
        "District": "район Ново-Переделкино",
        "ID": 268,
        "global_id": 58701992
    },
    {
        "Station": "Автозаводская",
        "Line": "Замоскворецкая линия",
        "Status": "действует",
        "AdmArea": "Южный административный округ",
        "District": "Даниловский район",
        "ID": 27,
        "global_id": 58701993
    },
    {
        "Station": "Дорогомиловская",
        "Line": "Солнцевская линия",
        "Status": "строится",
        "AdmArea": "Западный административный округ",
        "District": "район Дорогомилово",
        "ID": 220,
        "global_id": 58701994
    },
    {
        "Station": "Текстильщики",
        "Line": "Таганско-Краснопресненская линия",
        "Status": "действует",
        "AdmArea": "Юго-Восточный административный округ",
        "District": "район Текстильщики",
        "ID": 125,
        "global_id": 58701995
    },
    {
        "Station": "Кожуховская",
        "Line": "Люблинско-Дмитровская линия",
        "Status": "действует",
        "AdmArea": "Юго-Восточный административный округ",
        "District": "Южнопортовый район",
        "ID": 170,
        "global_id": 58701996
    },
    {
        "Station": "Марьино",
        "Line": "Люблинско-Дмитровская линия",
        "Status": "действует",
        "AdmArea": "Юго-Восточный административный округ",
        "District": "район Марьино",
        "ID": 175,
        "global_id": 58701997
    },
    {
        "Station": "Павелецкая",
        "Line": "Кольцевая линия",
        "Status": "действует",
        "AdmArea": "Центральный административный округ",
        "District": "район Замоскворечье",
        "ID": 77,
        "global_id": 58701998
    },
    {
        "Station": "Преображенская площадь",
        "Line": "Сокольническая линия",
        "Status": "действует",
        "AdmArea": "Восточный административный округ",
        "District": "район Преображенское",
        "ID": 3,
        "global_id": 58701999
    },
    {
        "Station": "Новослободская",
        "Line": "Кольцевая линия",
        "Status": "действует",
        "AdmArea": "Центральный административный округ",
        "District": "Тверской район",
        "ID": 82,
        "global_id": 58702000
    },
    {
        "Station": "Фили",
        "Line": "Филёвская линия",
        "Status": "действует",
        "AdmArea": "Западный административный округ",
        "District": "район Филёвский Парк",
        "ID": 65,
        "global_id": 58702001
    },
    {
        "Station": "Кунцевская",
        "Line": "Большая кольцевая линия",
        "Status": "строится",
        "AdmArea": "Западный административный округ",
        "District": "район Кунцево",
        "ID": 244,
        "global_id": 58702002
    },
    {
        "Station": "Домодедовская",
        "Line": "Замоскворецкая линия",
        "Status": "действует",
        "AdmArea": "Южный административный округ",
        "District": "район Орехово-Борисово Южное",
        "ID": 21,
        "global_id": 58702003
    },
    {
        "Station": "Мневники",
        "Line": "Большая кольцевая линия",
        "Status": "действует",
        "AdmArea": "Северо-Западный административный округ",
        "District": "район Хорошёво-Мнёвники",
        "ID": 242,
        "global_id": 58702004
    },
    {
        "Station": "Охотный ряд",
        "Line": "Сокольническая линия",
        "Status": "действует",
        "AdmArea": "Центральный административный округ",
        "District": "Тверской район",
        "ID": 10,
        "global_id": 58702005
    },
    {
        "Station": "Новокосино",
        "Line": "Калининская линия",
        "Status": "действует",
        "AdmArea": "Восточный административный округ",
        "District": "район Новокосино",
        "ID": 129,
        "global_id": 58702006
    },
    {
        "Station": "Курская",
        "Line": "Кольцевая линия",
        "Status": "действует",
        "AdmArea": "Центральный административный округ",
        "District": "Басманный район",
        "ID": 79,
        "global_id": 58702007
    },
    {
        "Station": "Лухмановская",
        "Line": "Некрасовская линия",
        "Status": "действует",
        "AdmArea": "Восточный административный округ",
        "District": "район Косино-Ухтомский",
        "ID": 228,
        "global_id": 58702008
    },
    {
        "Station": "Достоевская",
        "Line": "Люблинско-Дмитровская линия",
        "Status": "действует",
        "AdmArea": "Центральный административный округ",
        "District": "Тверской район",
        "ID": 163,
        "global_id": 58702009
    },
    {
        "Station": "Улица Новаторов",
        "Line": "Большая кольцевая линия",
        "Status": "строится",
        "AdmArea": "Западный административный округ",
        "District": "район Проспект Вернадского",
        "ID": 248,
        "global_id": 58702010
    },
    {
        "Station": "Международная",
        "Line": "Филёвская линия",
        "Status": "действует",
        "AdmArea": "Центральный административный округ",
        "District": "Пресненский район",
        "ID": 73,
        "global_id": 58702011
    },
    {
        "Station": "Борисово",
        "Line": "Люблинско-Дмитровская линия",
        "Status": "действует",
        "AdmArea": "Южный административный округ",
        "District": "район Зябликово",
        "ID": 176,
        "global_id": 58702012
    },
    {
        "Station": "Выставочный центр",
        "Line": "Московская монорельсовая транспортная система",
        "Status": "действует",
        "AdmArea": "Северо-Восточный административный округ",
        "District": "Останкинский район",
        "ID": 188,
        "global_id": 58702013
    },
    {
        "Station": "Беговая",
        "Line": "Таганско-Краснопресненская линия",
        "Status": "действует",
        "AdmArea": "Центральный административный округ",
        "District": "Пресненский район",
        "ID": 116,
        "global_id": 58702014
    },
    {
        "Station": "Терехово",
        "Line": "Большая кольцевая линия",
        "Status": "строится",
        "AdmArea": "Северо-Западный административный округ",
        "District": "район Хорошёво-Мнёвники",
        "ID": 243,
        "global_id": 58702015
    },
    {
        "Station": "Третьяковская",
        "Line": "Солнцевская линия",
        "Status": "строится",
        "AdmArea": "Центральный административный округ",
        "District": "район Замоскворечье",
        "ID": 222,
        "global_id": 58702016
    },
    {
        "Station": "Савёловская",
        "Line": "Серпуховско-Тимирязевская линия",
        "Status": "действует",
        "AdmArea": "Северо-Восточный административный округ",
        "District": "Бутырский район",
        "ID": 144,
        "global_id": 58702017
    },
    {
        "Station": "Волоколамская",
        "Line": "Арбатско-Покровская линия",
        "Status": "действует",
        "AdmArea": "Северо-Западный административный округ",
        "District": "район Митино",
        "ID": 59,
        "global_id": 58702018
    },
    {
        "Station": "Парк Победы",
        "Line": "Солнцевская линия",
        "Status": "действует",
        "AdmArea": "Западный административный округ",
        "District": "район Дорогомилово",
        "ID": 218,
        "global_id": 58702019
    },
    {
        "Station": "Чертановская",
        "Line": "Серпуховско-Тимирязевская линия",
        "Status": "действует",
        "AdmArea": "Южный административный округ",
        "District": "район Чертаново Северное",
        "ID": 156,
        "global_id": 58702020
    },
    {
        "Station": "Парк Победы",
        "Line": "Арбатско-Покровская линия",
        "Status": "действует",
        "AdmArea": "Западный административный округ",
        "District": "район Дорогомилово",
        "ID": 52,
        "global_id": 58702021
    },
    {
        "Station": "Филёвский парк",
        "Line": "Филёвская линия",
        "Status": "действует",
        "AdmArea": "Западный административный округ",
        "District": "район Фили-Давыдково",
        "ID": 63,
        "global_id": 58702022
    },
    {
        "Station": "Фрунзенская",
        "Line": "Сокольническая линия",
        "Status": "действует",
        "AdmArea": "Центральный административный округ",
        "District": "район Хамовники",
        "ID": 14,
        "global_id": 58702023
    },
    {
        "Station": "Кузнецкий мост",
        "Line": "Таганско-Краснопресненская линия",
        "Status": "действует",
        "AdmArea": "Центральный административный округ",
        "District": "Мещанский район",
        "ID": 120,
        "global_id": 58702024
    },
    {
        "Station": "Лубянка",
        "Line": "Сокольническая линия",
        "Status": "действует",
        "AdmArea": "Центральный административный округ",
        "District": "Тверской район",
        "ID": 9,
        "global_id": 58702025
    },
    {
        "Station": "Улица Сергея Эйзенштейна",
        "Line": "Московская монорельсовая транспортная система",
        "Status": "действует",
        "AdmArea": "Северо-Восточный административный округ",
        "District": "Останкинский район",
        "ID": 187,
        "global_id": 58702026
    },
    {
        "Station": "Водный стадион",
        "Line": "Замоскворецкая линия",
        "Status": "действует",
        "AdmArea": "Северный административный округ",
        "District": "Головинский район",
        "ID": 38,
        "global_id": 58702027
    },
    {
        "Station": "Улица 1905 года",
        "Line": "Таганско-Краснопресненская линия",
        "Status": "действует",
        "AdmArea": "Центральный административный округ",
        "District": "Пресненский район",
        "ID": 117,
        "global_id": 58702028
    },
    {
        "Station": "Ломоносовский проспект",
        "Line": "Солнцевская линия",
        "Status": "действует",
        "AdmArea": "Западный административный округ",
        "District": "район Раменки",
        "ID": 224,
        "global_id": 58702029
    },
    {
        "Station": "Марксистская",
        "Line": "Калининская линия",
        "Status": "действует",
        "AdmArea": "Центральный административный округ",
        "District": "Таганский район",
        "ID": 135,
        "global_id": 58702030
    },
    {
        "Station": "Боровское шоссе",
        "Line": "Солнцевская линия",
        "Status": "действует",
        "AdmArea": "Западный административный округ",
        "District": "район Ново-Переделкино",
        "ID": 267,
        "global_id": 58702031
    },
    {
        "Station": "Партизанская",
        "Line": "Арбатско-Покровская линия",
        "Status": "действует",
        "AdmArea": "Восточный административный округ",
        "District": "район Измайлово",
        "ID": 43,
        "global_id": 58702032
    },
    {
        "Station": "Улица академика Янгеля",
        "Line": "Серпуховско-Тимирязевская линия",
        "Status": "действует",
        "AdmArea": "Южный административный округ",
        "District": "район Чертаново Южное",
        "ID": 159,
        "global_id": 58702033
    },
    {
        "Station": "Краснопресненская",
        "Line": "Кольцевая линия",
        "Status": "действует",
        "AdmArea": "Центральный административный округ",
        "District": "Пресненский район",
        "ID": 84,
        "global_id": 58702034
    },
    {
        "Station": "Авиамоторная",
        "Line": "Некрасовская линия",
        "Status": "действует",
        "AdmArea": "Юго-Восточный административный округ",
        "District": "район Лефортово",
        "ID": 230,
        "global_id": 58702035
    },
    {
        "Station": "Чкаловская",
        "Line": "Люблинско-Дмитровская линия",
        "Status": "действует",
        "AdmArea": "Центральный административный округ",
        "District": "Басманный район",
        "ID": 166,
        "global_id": 58702036
    },
    {
        "Station": "Тульская",
        "Line": "Серпуховско-Тимирязевская линия",
        "Status": "действует",
        "AdmArea": "Южный административный округ",
        "District": "Даниловский район",
        "ID": 151,
        "global_id": 58702037
    },
    {
        "Station": "Лермонтовский проспект",
        "Line": "Таганско-Краснопресненская линия",
        "Status": "действует",
        "AdmArea": "Юго-Восточный административный округ",
        "District": "район Выхино-Жулебино",
        "ID": 204,
        "global_id": 58702038
    },
    {
        "Station": "Спартак",
        "Line": "Таганско-Краснопресненская линия",
        "Status": "действует",
        "AdmArea": "Северо-Западный административный округ",
        "District": "район Покровское-Стрешнево",
        "ID": 203,
        "global_id": 58702039
    },
    {
        "Station": "Арбатская",
        "Line": "Филёвская линия",
        "Status": "действует",
        "AdmArea": "Центральный административный округ",
        "District": "район Арбат",
        "ID": 70,
        "global_id": 58702040
    },
    {
        "Station": "Аннино",
        "Line": "Серпуховско-Тимирязевская линия",
        "Status": "действует",
        "AdmArea": "Южный административный округ",
        "District": "район Чертаново Южное",
        "ID": 160,
        "global_id": 58702041
    },
    {
        "Station": "Севастопольская",
        "Line": "Серпуховско-Тимирязевская линия",
        "Status": "действует",
        "AdmArea": "Юго-Западный административный округ",
        "District": "район Зюзино",
        "ID": 155,
        "global_id": 58702042
    },
    {
        "Station": "Профсоюзная",
        "Line": "Калужско-Рижская линия",
        "Status": "действует",
        "AdmArea": "Юго-Западный административный округ",
        "District": "Академический район",
        "ID": 102,
        "global_id": 58702043
    },
    {
        "Station": "Арбатская",
        "Line": "Арбатско-Покровская линия",
        "Status": "действует",
        "AdmArea": "Центральный административный округ",
        "District": "район Арбат",
        "ID": 49,
        "global_id": 58702044
    },
    {
        "Station": "Улица Горчакова",
        "Line": "Бутовская линия Лёгкого метро",
        "Status": "действует",
        "AdmArea": "Юго-Западный административный округ",
        "District": "район Южное Бутово",
        "ID": 185,
        "global_id": 58702045
    },
    {
        "Station": "Мякинино",
        "Line": "Арбатско-Покровская линия",
        "Status": "действует",
        "AdmArea": "Северо-Западный административный округ",
        "District": "район Строгино",
        "ID": 58,
        "global_id": 58702046
    },
    {
        "Station": "Октябрьская",
        "Line": "Калужско-Рижская линия",
        "Status": "действует",
        "AdmArea": "Центральный административный округ",
        "District": "район Якиманка",
        "ID": 98,
        "global_id": 58702047
    },
    {
        "Station": "Пионерская",
        "Line": "Филёвская линия",
        "Status": "действует",
        "AdmArea": "Западный административный округ",
        "District": "район Фили-Давыдково",
        "ID": 62,
        "global_id": 58702048
    },
    {
        "Station": "Площадь Ильича",
        "Line": "Калининская линия",
        "Status": "действует",
        "AdmArea": "Центральный административный округ",
        "District": "Таганский район",
        "ID": 134,
        "global_id": 58702049
    },
    {
        "Station": "Рассказовка",
        "Line": "Солнцевская линия",
        "Status": "действует",
        "AdmArea": "Новомосковский административный округ",
        "District": "поселение Внуковское",
        "ID": 269,
        "global_id": 58702050
    },
    {
        "Station": "Нагатинский затон",
        "Line": "Большая кольцевая линия",
        "Status": "строится",
        "AdmArea": "Южный административный округ",
        "District": "район Нагатинский Затон",
        "ID": 253,
        "global_id": 58702051
    },
    {
        "Station": "Измайловская",
        "Line": "Арбатско-Покровская линия",
        "Status": "действует",
        "AdmArea": "Восточный административный округ",
        "District": "район Измайлово",
        "ID": 42,
        "global_id": 58702052
    },
    {
        "Station": "Косино",
        "Line": "Некрасовская линия",
        "Status": "действует",
        "AdmArea": "Юго-Восточный административный округ",
        "District": "район Выхино-Жулебино",
        "ID": 226,
        "global_id": 58702053
    },
    {
        "Station": "Битцевский парк",
        "Line": "Бутовская линия Лёгкого метро",
        "Status": "действует",
        "AdmArea": "Юго-Западный административный округ",
        "District": "район Ясенево",
        "ID": 215,
        "global_id": 58702054
    },
    {
        "Station": "Сокол",
        "Line": "Замоскворецкая линия",
        "Status": "действует",
        "AdmArea": "Северный административный округ",
        "District": "район Сокол",
        "ID": 36,
        "global_id": 58702055
    },
    {
        "Station": "Ржевская",
        "Line": "Большая кольцевая линия",
        "Status": "строится",
        "AdmArea": "Центральный административный округ",
        "District": "Мещанский район",
        "ID": 261,
        "global_id": 58702056
    },
    {
        "Station": "Сокольники",
        "Line": "Большая кольцевая линия",
        "Status": "строится",
        "AdmArea": "Восточный административный округ",
        "District": "район Сокольники",
        "ID": 260,
        "global_id": 58702057
    },
    {
        "Station": "Смоленская",
        "Line": "Филёвская линия",
        "Status": "действует",
        "AdmArea": "Центральный административный округ",
        "District": "район Арбат",
        "ID": 69,
        "global_id": 58702058
    },
    {
        "Station": "Каховская",
        "Line": "Каховская линия",
        "Status": "действует",
        "AdmArea": "Юго-Западный административный округ",
        "District": "район Зюзино",
        "ID": 181,
        "global_id": 58702059
    },
    {
        "Station": "Парк культуры",
        "Line": "Сокольническая линия",
        "Status": "действует",
        "AdmArea": "Центральный административный округ",
        "District": "район Хамовники",
        "ID": 13,
        "global_id": 58702060
    },
    {
        "Station": "Мичуринский проспект",
        "Line": "Солнцевская линия",
        "Status": "действует",
        "AdmArea": "Западный административный округ",
        "District": "район Раменки",
        "ID": 263,
        "global_id": 58702061
    },
    {
        "Station": "Котельники",
        "Line": "Таганско-Краснопресненская линия",
        "Status": "действует",
        "AdmArea": "Юго-Восточный административный округ",
        "District": "район Выхино-Жулебино",
        "ID": 206,
        "global_id": 58702062
    },
    {
        "Station": "Библиотека имени Ленина",
        "Line": "Сокольническая линия",
        "Status": "действует",
        "AdmArea": "Центральный административный округ",
        "District": "район Арбат",
        "ID": 11,
        "global_id": 58702063
    },
    {
        "Station": "Некрасовка",
        "Line": "Некрасовская линия",
        "Status": "действует",
        "AdmArea": "Юго-Восточный административный округ",
        "District": "район Некрасовка",
        "ID": 229,
        "global_id": 58702064
    },
    {
        "Station": "Волгоградский проспект",
        "Line": "Таганско-Краснопресненская линия",
        "Status": "действует",
        "AdmArea": "Юго-Восточный административный округ",
        "District": "Южнопортовый район",
        "ID": 124,
        "global_id": 58702065
    },
    {
        "Station": "Трубная",
        "Line": "Люблинско-Дмитровская линия",
        "Status": "действует",
        "AdmArea": "Центральный административный округ",
        "District": "Мещанский район",
        "ID": 164,
        "global_id": 58702066
    },
    {
        "Station": "Динамо",
        "Line": "Замоскворецкая линия",
        "Status": "действует",
        "AdmArea": "Северный административный округ",
        "District": "район Аэропорт",
        "ID": 34,
        "global_id": 58702067
    },
    {
        "Station": "Алексеевская",
        "Line": "Калужско-Рижская линия",
        "Status": "действует",
        "AdmArea": "Северо-Восточный административный округ",
        "District": "Алексеевский район",
        "ID": 91,
        "global_id": 58702068
    },
    {
        "Station": "Улица академика Королёва",
        "Line": "Московская монорельсовая транспортная система",
        "Status": "действует",
        "AdmArea": "Северо-Восточный административный округ",
        "District": "Останкинский район",
        "ID": 189,
        "global_id": 58702070
    },
    {
        "Station": "Планерная",
        "Line": "Таганско-Краснопресненская линия",
        "Status": "действует",
        "AdmArea": "Северо-Западный административный округ",
        "District": "район Северное Тушино",
        "ID": 110,
        "global_id": 58702071
    },
    {
        "Station": "Спортивная",
        "Line": "Сокольническая линия",
        "Status": "действует",
        "AdmArea": "Центральный административный округ",
        "District": "район Хамовники",
        "ID": 15,
        "global_id": 58702072
    },
    {
        "Station": "Аминьевское шоссе",
        "Line": "Большая кольцевая линия",
        "Status": "строится",
        "AdmArea": "Западный административный округ",
        "District": "район Кунцево",
        "ID": 245,
        "global_id": 58702073
    },
    {
        "Station": "Суворовская",
        "Line": "Кольцевая линия",
        "Status": "строится",
        "AdmArea": "Центральный административный округ",
        "District": "Мещанский район",
        "ID": 201,
        "global_id": 58702074
    },
    {
        "Station": "Таганская",
        "Line": "Таганско-Краснопресненская линия",
        "Status": "действует",
        "AdmArea": "Центральный административный округ",
        "District": "Таганский район",
        "ID": 122,
        "global_id": 58702075
    },
    {
        "Station": "Киевская",
        "Line": "Арбатско-Покровская линия",
        "Status": "действует",
        "AdmArea": "Западный административный округ",
        "District": "район Дорогомилово",
        "ID": 51,
        "global_id": 58702076
    },
    {
        "Station": "Театральная",
        "Line": "Замоскворецкая линия",
        "Status": "действует",
        "AdmArea": "Центральный административный округ",
        "District": "Тверской район",
        "ID": 30,
        "global_id": 58702077
    },
    {
        "Station": "Сокольники",
        "Line": "Сокольническая линия",
        "Status": "действует",
        "AdmArea": "Восточный административный округ",
        "District": "район Сокольники",
        "ID": 4,
        "global_id": 58702078
    },
    {
        "Station": "Деловой центр",
        "Line": "Солнцевская линия",
        "Status": "действует",
        "AdmArea": "Центральный административный округ",
        "District": "Пресненский район",
        "ID": 217,
        "global_id": 58702079
    },
    {
        "Station": "Бульвар Дмитрия Донского",
        "Line": "Серпуховско-Тимирязевская линия",
        "Status": "действует",
        "AdmArea": "Юго-Западный административный округ",
        "District": "район Северное Бутово",
        "ID": 161,
        "global_id": 58702080
    },
    {
        "Station": "Шипиловская",
        "Line": "Люблинско-Дмитровская линия",
        "Status": "действует",
        "AdmArea": "Южный административный округ",
        "District": "район Зябликово",
        "ID": 177,
        "global_id": 58702081
    },
    {
        "Station": "Белорусская",
        "Line": "Кольцевая линия",
        "Status": "действует",
        "AdmArea": "Центральный административный округ",
        "District": "Тверской район",
        "ID": 83,
        "global_id": 58702083
    },
    {
        "Station": "Полянка",
        "Line": "Серпуховско-Тимирязевская линия",
        "Status": "действует",
        "AdmArea": "Центральный административный округ",
        "District": "район Якиманка",
        "ID": 149,
        "global_id": 58702084
    },
    {
        "Station": "Крылатское",
        "Line": "Арбатско-Покровская линия",
        "Status": "действует",
        "AdmArea": "Западный административный округ",
        "District": "район Крылатское",
        "ID": 56,
        "global_id": 58702085
    },
    {
        "Station": "Сходненская",
        "Line": "Таганско-Краснопресненская линия",
        "Status": "действует",
        "AdmArea": "Северо-Западный административный округ",
        "District": "район Южное Тушино",
        "ID": 111,
        "global_id": 58702086
    },
    {
        "Station": "Площадь Революции",
        "Line": "Арбатско-Покровская линия",
        "Status": "действует",
        "AdmArea": "Центральный административный округ",
        "District": "Тверской район",
        "ID": 48,
        "global_id": 58702087
    },
    {
        "Station": "Юго-Западная",
        "Line": "Сокольническая линия",
        "Status": "действует",
        "AdmArea": "Западный административный округ",
        "District": "район Тропарёво-Никулино",
        "ID": 19,
        "global_id": 58702088
    },
    {
        "Station": "Шоссе Энтузиастов",
        "Line": "Калининская линия",
        "Status": "действует",
        "AdmArea": "Восточный административный округ",
        "District": "район Перово",
        "ID": 132,
        "global_id": 58702089
    },
    {
        "Station": "Китай-город",
        "Line": "Калужско-Рижская линия",
        "Status": "действует",
        "AdmArea": "Центральный административный округ",
        "District": "Тверской район",
        "ID": 96,
        "global_id": 58702090
    },
    {
        "Station": "Щукинская",
        "Line": "Таганско-Краснопресненская линия",
        "Status": "действует",
        "AdmArea": "Северо-Западный административный округ",
        "District": "район Щукино",
        "ID": 113,
        "global_id": 58702091
    },
    {
        "Station": "Лесопарковая",
        "Line": "Бутовская линия Лёгкого метро",
        "Status": "действует",
        "AdmArea": "Юго-Западный административный округ",
        "District": "район Северное Бутово",
        "ID": 216,
        "global_id": 58702092
    },
    {
        "Station": "Новогиреево",
        "Line": "Калининская линия",
        "Status": "действует",
        "AdmArea": "Восточный административный округ",
        "District": "район Новогиреево",
        "ID": 130,
        "global_id": 58702093
    },
    {
        "Station": "Курская",
        "Line": "Арбатско-Покровская линия",
        "Status": "действует",
        "AdmArea": "Центральный административный округ",
        "District": "Басманный район",
        "ID": 47,
        "global_id": 58702094
    },
    {
        "Station": "Минская",
        "Line": "Солнцевская линия",
        "Status": "действует",
        "AdmArea": "Западный административный округ",
        "District": "район Дорогомилово",
        "ID": 223,
        "global_id": 58702098
    },
    {
        "Station": "Студенческая",
        "Line": "Филёвская линия",
        "Status": "действует",
        "AdmArea": "Западный административный округ",
        "District": "район Дорогомилово",
        "ID": 67,
        "global_id": 58702099
    },
    {
        "Station": "Пражская",
        "Line": "Серпуховско-Тимирязевская линия",
        "Status": "действует",
        "AdmArea": "Южный административный округ",
        "District": "район Чертаново Центральное",
        "ID": 158,
        "global_id": 58702100
    },
    {
        "Station": "Парк культуры",
        "Line": "Кольцевая линия",
        "Status": "действует",
        "AdmArea": "Центральный административный округ",
        "District": "район Хамовники",
        "ID": 74,
        "global_id": 58702101
    },
    {
        "Station": "Аэропорт",
        "Line": "Замоскворецкая линия",
        "Status": "действует",
        "AdmArea": "Северный административный округ",
        "District": "район Аэропорт",
        "ID": 35,
        "global_id": 58702102
    },
    {
        "Station": "Проспект Мира",
        "Line": "Кольцевая линия",
        "Status": "действует",
        "AdmArea": "Центральный административный округ",
        "District": "Мещанский район",
        "ID": 81,
        "global_id": 58702103
    },
    {
        "Station": "Третьяковская",
        "Line": "Калужско-Рижская линия",
        "Status": "действует",
        "AdmArea": "Центральный административный округ",
        "District": "район Замоскворечье",
        "ID": 97,
        "global_id": 58702104
    },
    {
        "Station": "Марьина роща",
        "Line": "Люблинско-Дмитровская линия",
        "Status": "действует",
        "AdmArea": "Северо-Восточный административный округ",
        "District": "район Марьина Роща",
        "ID": 162,
        "global_id": 58702105
    },
    {
        "Station": "Китай-город",
        "Line": "Таганско-Краснопресненская линия",
        "Status": "действует",
        "AdmArea": "Центральный административный округ",
        "District": "Тверской район",
        "ID": 121,
        "global_id": 58702106
    },
    {
        "Station": "Авиамоторная",
        "Line": "Калининская линия",
        "Status": "действует",
        "AdmArea": "Юго-Восточный административный округ",
        "District": "район Лефортово",
        "ID": 133,
        "global_id": 58702107
    },
    {
        "Station": "Нахимовский проспект",
        "Line": "Серпуховско-Тимирязевская линия",
        "Status": "действует",
        "AdmArea": "Юго-Западный административный округ",
        "District": "район Зюзино",
        "ID": 154,
        "global_id": 58702108
    },
    {
        "Station": "Алма-Атинская",
        "Line": "Замоскворецкая линия",
        "Status": "действует",
        "AdmArea": "Южный административный округ",
        "District": "район Братеево",
        "ID": 196,
        "global_id": 58702109
    },
    {
        "Station": "Цветной бульвар",
        "Line": "Серпуховско-Тимирязевская линия",
        "Status": "действует",
        "AdmArea": "Центральный административный округ",
        "District": "Тверской район",
        "ID": 146,
        "global_id": 58702110
    },
    {
        "Station": "Окружная",
        "Line": "Люблинско-Дмитровская линия",
        "Status": "действует",
        "AdmArea": "Северный административный округ",
        "District": "Тимирязевский район",
        "ID": 210,
        "global_id": 58702111
    },
    {
        "Station": "Добрынинская",
        "Line": "Кольцевая линия",
        "Status": "действует",
        "AdmArea": "Центральный административный округ",
        "District": "район Замоскворечье",
        "ID": 76,
        "global_id": 58702112
    },
    {
        "Station": "Технопарк",
        "Line": "Замоскворецкая линия",
        "Status": "действует",
        "AdmArea": "Южный административный округ",
        "District": "район Нагатино-Садовники",
        "ID": 197,
        "global_id": 58702113
    },
    {
        "Station": "Серпуховская",
        "Line": "Серпуховско-Тимирязевская линия",
        "Status": "действует",
        "AdmArea": "Центральный административный округ",
        "District": "район Замоскворечье",
        "ID": 150,
        "global_id": 58702114
    },
    {
        "Station": "Каширская",
        "Line": "Замоскворецкая линия",
        "Status": "действует",
        "AdmArea": "Южный административный округ",
        "District": "район Нагатино-Садовники",
        "ID": 25,
        "global_id": 58702115
    },
    {
        "Station": "Жулебино",
        "Line": "Таганско-Краснопресненская линия",
        "Status": "действует",
        "AdmArea": "Юго-Восточный административный округ",
        "District": "район Выхино-Жулебино",
        "ID": 205,
        "global_id": 58702116
    },
    {
        "Station": "Селигерская",
        "Line": "Люблинско-Дмитровская линия",
        "Status": "действует",
        "AdmArea": "Северный административный округ",
        "District": "Бескудниковский район",
        "ID": 212,
        "global_id": 58702117
    },
    {
        "Station": "Юго-Восточная",
        "Line": "Некрасовская линия",
        "Status": "действует",
        "AdmArea": "Юго-Восточный административный округ",
        "District": "район Выхино-Жулебино",
        "ID": 234,
        "global_id": 58702118
    },
    {
        "Station": "Солнцево",
        "Line": "Солнцевская линия",
        "Status": "действует",
        "AdmArea": "Западный административный округ",
        "District": "район Солнцево",
        "ID": 266,
        "global_id": 58702119
    },
    {
        "Station": "Пятницкое шоссе",
        "Line": "Арбатско-Покровская линия",
        "Status": "действует",
        "AdmArea": "Северо-Западный административный округ",
        "District": "район Митино",
        "ID": 200,
        "global_id": 58702120
    },
    {
        "Station": "Улица Скобелевская",
        "Line": "Бутовская линия Лёгкого метро",
        "Status": "действует",
        "AdmArea": "Юго-Западный административный округ",
        "District": "район Южное Бутово",
        "ID": 183,
        "global_id": 58702121
    },
    {
        "Station": "Воробьёвы горы",
        "Line": "Сокольническая линия",
        "Status": "действует",
        "AdmArea": "Западный административный округ",
        "District": "район Раменки",
        "ID": 16,
        "global_id": 58702122
    },
    {
        "Station": "Мичуринский проспект",
        "Line": "Большая кольцевая линия",
        "Status": "строится",
        "AdmArea": "Западный административный округ",
        "District": "район Раменки",
        "ID": 246,
        "global_id": 58702123
    },
    {
        "Station": "Верхние Лихоборы",
        "Line": "Люблинско-Дмитровская линия",
        "Status": "действует",
        "AdmArea": "Северный административный округ",
        "District": "Бескудниковский район",
        "ID": 211,
        "global_id": 58702124
    },
    {
        "Station": "Строгино",
        "Line": "Арбатско-Покровская линия",
        "Status": "действует",
        "AdmArea": "Северо-Западный административный округ",
        "District": "район Строгино",
        "ID": 57,
        "global_id": 58702125
    },
    {
        "Station": "Отрадное",
        "Line": "Серпуховско-Тимирязевская линия",
        "Status": "действует",
        "AdmArea": "Северо-Восточный административный округ",
        "District": "район Отрадное",
        "ID": 139,
        "global_id": 58702126
    },
    {
        "Station": "Кузьминки",
        "Line": "Таганско-Краснопресненская линия",
        "Status": "действует",
        "AdmArea": "Юго-Восточный административный округ",
        "District": "район Кузьминки",
        "ID": 126,
        "global_id": 58702127
    },
    {
        "Station": "Кунцевская",
        "Line": "Филёвская линия",
        "Status": "действует",
        "AdmArea": "Западный административный округ",
        "District": "район Кунцево",
        "ID": 61,
        "global_id": 58702128
    },
    {
        "Station": "Окская",
        "Line": "Некрасовская линия",
        "Status": "действует",
        "AdmArea": "Юго-Восточный административный округ",
        "District": "Рязанский район",
        "ID": 233,
        "global_id": 58702129
    },
    {
        "Station": "Митино",
        "Line": "Арбатско-Покровская линия",
        "Status": "действует",
        "AdmArea": "Северо-Западный административный округ",
        "District": "район Митино",
        "ID": 60,
        "global_id": 58702130
    },
    {
        "Station": "Академическая",
        "Line": "Калужско-Рижская линия",
        "Status": "действует",
        "AdmArea": "Юго-Западный административный округ",
        "District": "Академический район",
        "ID": 101,
        "global_id": 58702131
    },
    {
        "Station": "Пролетарская",
        "Line": "Таганско-Краснопресненская линия",
        "Status": "действует",
        "AdmArea": "Центральный административный округ",
        "District": "Таганский район",
        "ID": 123,
        "global_id": 58702132
    },
    {
        "Station": "Деловой центр",
        "Line": "Большая кольцевая линия",
        "Status": "действует",
        "AdmArea": "Центральный административный округ",
        "District": "Пресненский район",
        "ID": 240,
        "global_id": 58702134
    },
    {
        "Station": "Тургеневская",
        "Line": "Калужско-Рижская линия",
        "Status": "действует",
        "AdmArea": "Центральный административный округ",
        "District": "Красносельский район",
        "ID": 95,
        "global_id": 58702135
    },
    {
        "Station": "Беляево",
        "Line": "Калужско-Рижская линия",
        "Status": "действует",
        "AdmArea": "Юго-Западный административный округ",
        "District": "район Коньково",
        "ID": 105,
        "global_id": 58702136
    },
    {
        "Station": "Царицыно",
        "Line": "Замоскворецкая линия",
        "Status": "действует",
        "AdmArea": "Южный административный округ",
        "District": "район Царицыно",
        "ID": 23,
        "global_id": 58702137
    },
    {
        "Station": "Волхонка",
        "Line": "Солнцевская линия",
        "Status": "строится",
        "AdmArea": "Центральный административный округ",
        "District": "район Хамовники",
        "ID": 219,
        "global_id": 58702138
    },
    {
        "Station": "Киевская",
        "Line": "Филёвская линия",
        "Status": "действует",
        "AdmArea": "Западный административный округ",
        "District": "район Дорогомилово",
        "ID": 68,
        "global_id": 58702139
    },
    {
        "Station": "Полежаевская",
        "Line": "Таганско-Краснопресненская линия",
        "Status": "действует",
        "AdmArea": "Северный административный округ",
        "District": "Хорошёвский район",
        "ID": 115,
        "global_id": 58702140
    },
    {
        "Station": "Текстильщики",
        "Line": "Большая кольцевая линия",
        "Status": "строится",
        "AdmArea": "Юго-Восточный административный округ",
        "District": "район Текстильщики",
        "ID": 255,
        "global_id": 58702141
    },
    {
        "Station": "Войковская",
        "Line": "Замоскворецкая линия",
        "Status": "действует",
        "AdmArea": "Северный административный округ",
        "District": "Войковский район",
        "ID": 37,
        "global_id": 58702142
    },
    {
        "Station": "Саларьево",
        "Line": "Сокольническая линия",
        "Status": "действует",
        "AdmArea": "Западный административный округ",
        "District": "район Солнцево",
        "ID": 195,
        "global_id": 58702143
    },
    {
        "Station": "Братиславская",
        "Line": "Люблинско-Дмитровская линия",
        "Status": "действует",
        "AdmArea": "Юго-Восточный административный округ",
        "District": "район Марьино",
        "ID": 174,
        "global_id": 58702144
    },
    {
        "Station": "Южная",
        "Line": "Серпуховско-Тимирязевская линия",
        "Status": "действует",
        "AdmArea": "Южный административный округ",
        "District": "район Чертаново Центральное",
        "ID": 157,
        "global_id": 58702145
    },
    {
        "Station": "Киевская",
        "Line": "Кольцевая линия",
        "Status": "действует",
        "AdmArea": "Западный административный округ",
        "District": "район Дорогомилово",
        "ID": 85,
        "global_id": 58702146
    },
    {
        "Station": "Славянский бульвар",
        "Line": "Арбатско-Покровская линия",
        "Status": "действует",
        "AdmArea": "Западный административный округ",
        "District": "район Фили-Давыдково",
        "ID": 53,
        "global_id": 58702147
    },
    {
        "Station": "Свиблово",
        "Line": "Калужско-Рижская линия",
        "Status": "действует",
        "AdmArea": "Северо-Восточный административный округ",
        "District": "район Свиблово",
        "ID": 88,
        "global_id": 58702148
    },
    {
        "Station": "Университет",
        "Line": "Сокольническая линия",
        "Status": "действует",
        "AdmArea": "Западный административный округ",
        "District": "район Раменки",
        "ID": 17,
        "global_id": 58702149
    },
    {
        "Station": "Улица Старокачаловская",
        "Line": "Бутовская линия Лёгкого метро",
        "Status": "действует",
        "AdmArea": "Юго-Западный административный округ",
        "District": "район Северное Бутово",
        "ID": 182,
        "global_id": 58702150
    },
    {
        "Station": "Электрозаводская",
        "Line": "Арбатско-Покровская линия",
        "Status": "действует",
        "AdmArea": "Восточный административный округ",
        "District": "район Соколиная Гора",
        "ID": 45,
        "global_id": 58702151
    },
    {
        "Station": "Ясенево",
        "Line": "Калужско-Рижская линия",
        "Status": "действует",
        "AdmArea": "Юго-Западный административный округ",
        "District": "район Ясенево",
        "ID": 108,
        "global_id": 58702152
    },
    {
        "Station": "Румянцево",
        "Line": "Сокольническая линия",
        "Status": "действует",
        "AdmArea": "Новомосковский административный округ",
        "District": "поселение Московский",
        "ID": 194,
        "global_id": 58702153
    },
    {
        "Station": "Тропарёво",
        "Line": "Сокольническая линия",
        "Status": "действует",
        "AdmArea": "Западный административный округ",
        "District": "район Тропарёво-Никулино",
        "ID": 193,
        "global_id": 58702154
    },
    {
        "Station": "Таганская",
        "Line": "Кольцевая линия",
        "Status": "действует",
        "AdmArea": "Центральный административный округ",
        "District": "Таганский район",
        "ID": 78,
        "global_id": 58702155
    },
    {
        "Station": "Каширская",
        "Line": "Каховская линия",
        "Status": "действует",
        "AdmArea": "Южный административный округ",
        "District": "район Москворечье-Сабурово",
        "ID": 179,
        "global_id": 58702156
    },
    {
        "Station": "Орехово",
        "Line": "Замоскворецкая линия",
        "Status": "действует",
        "AdmArea": "Южный административный округ",
        "District": "район Орехово-Борисово Северное",
        "ID": 22,
        "global_id": 58702157
    },
    {
        "Station": "Перово",
        "Line": "Калининская линия",
        "Status": "действует",
        "AdmArea": "Восточный административный округ",
        "District": "район Новогиреево",
        "ID": 131,
        "global_id": 58702158
    },
    {
        "Station": "Телецентр",
        "Line": "Московская монорельсовая транспортная система",
        "Status": "действует",
        "AdmArea": "Северо-Восточный административный округ",
        "District": "Останкинский район",
        "ID": 190,
        "global_id": 58702159
    },
    {
        "Station": "Дубровка",
        "Line": "Люблинско-Дмитровская линия",
        "Status": "действует",
        "AdmArea": "Юго-Восточный административный округ",
        "District": "Южнопортовый район",
        "ID": 169,
        "global_id": 58702160
    },
    {
        "Station": "Каширская",
        "Line": "Большая кольцевая линия",
        "Status": "строится",
        "AdmArea": "Южный административный округ",
        "District": "район Москворечье-Сабурово",
        "ID": 252,
        "global_id": 58702161
    },
    {
        "Station": "Семёновская",
        "Line": "Арбатско-Покровская линия",
        "Status": "действует",
        "AdmArea": "Восточный административный округ",
        "District": "район Соколиная Гора",
        "ID": 44,
        "global_id": 58702162
    },
    {
        "Station": "Стахановская",
        "Line": "Некрасовская линия",
        "Status": "действует",
        "AdmArea": "Юго-Восточный административный округ",
        "District": "Рязанский район",
        "ID": 232,
        "global_id": 58702163
    },
    {
        "Station": "Кунцевская",
        "Line": "Арбатско-Покровская линия",
        "Status": "действует",
        "AdmArea": "Западный административный округ",
        "District": "район Кунцево",
        "ID": 54,
        "global_id": 58702164
    },
    {
        "Station": "Петровско-Разумовская",
        "Line": "Люблинско-Дмитровская линия",
        "Status": "действует",
        "AdmArea": "Северный административный округ",
        "District": "Тимирязевский район",
        "ID": 209,
        "global_id": 58702165
    },
    {
        "Station": "Тёплый стан",
        "Line": "Калужско-Рижская линия",
        "Status": "действует",
        "AdmArea": "Юго-Западный административный округ",
        "District": "район Ясенево",
        "ID": 107,
        "global_id": 58702166
    },
    {
        "Station": "Выхино",
        "Line": "Таганско-Краснопресненская линия",
        "Status": "действует",
        "AdmArea": "Юго-Восточный административный округ",
        "District": "район Выхино-Жулебино",
        "ID": 128,
        "global_id": 58702168
    },
    {
        "Station": "Кантемировская",
        "Line": "Замоскворецкая линия",
        "Status": "действует",
        "AdmArea": "Южный административный округ",
        "District": "район Царицыно",
        "ID": 24,
        "global_id": 58702170
    },
    {
        "Station": "Севастопольский проспект",
        "Line": "Большая кольцевая линия",
        "Status": "строится",
        "AdmArea": "Юго-Западный административный округ",
        "District": "район Зюзино",
        "ID": 250,
        "global_id": 58702171
    },
    {
        "Station": "Молодёжная",
        "Line": "Арбатско-Покровская линия",
        "Status": "действует",
        "AdmArea": "Западный административный округ",
        "District": "район Кунцево",
        "ID": 55,
        "global_id": 58702172
    },
    {
        "Station": "Владыкино",
        "Line": "Серпуховско-Тимирязевская линия",
        "Status": "действует",
        "AdmArea": "Северо-Восточный административный округ",
        "District": "район Отрадное",
        "ID": 140,
        "global_id": 58702173
    },
    {
        "Station": "Крестьянская застава",
        "Line": "Люблинско-Дмитровская линия",
        "Status": "действует",
        "AdmArea": "Центральный административный округ",
        "District": "Таганский район",
        "ID": 168,
        "global_id": 58702174
    },
    {
        "Station": "Хорошёвская",
        "Line": "Большая кольцевая линия",
        "Status": "действует",
        "AdmArea": "Северный административный округ",
        "District": "Хорошёвский район",
        "ID": 238,
        "global_id": 58702175
    },
    {
        "Station": "Зябликово",
        "Line": "Люблинско-Дмитровская линия",
        "Status": "действует",
        "AdmArea": "Южный административный округ",
        "District": "район Зябликово",
        "ID": 178,
        "global_id": 58702176
    },
    {
        "Station": "Петровско-Разумовская",
        "Line": "Серпуховско-Тимирязевская линия",
        "Status": "действует",
        "AdmArea": "Северный административный округ",
        "District": "Тимирязевский район",
        "ID": 141,
        "global_id": 58702177
    },
    {
        "Station": "Красносельская",
        "Line": "Сокольническая линия",
        "Status": "действует",
        "AdmArea": "Центральный административный округ",
        "District": "Красносельский район",
        "ID": 5,
        "global_id": 58702178
    },
    {
        "Station": "Улица Народного ополчения",
        "Line": "Большая кольцевая линия",
        "Status": "действует",
        "AdmArea": "Северо-Западный административный округ",
        "District": "район Хорошёво-Мнёвники",
        "ID": 241,
        "global_id": 58702179
    },
    {
        "Station": "Чистые пруды",
        "Line": "Сокольническая линия",
        "Status": "действует",
        "AdmArea": "Центральный административный округ",
        "District": "Басманный район",
        "ID": 8,
        "global_id": 58702180
    },
    {
        "Station": "Дмитровское шоссе",
        "Line": "Люблинско-Дмитровская линия",
        "Status": "строится",
        "AdmArea": "Северный административный округ",
        "District": "район Восточное Дегунино",
        "ID": 214,
        "global_id": 58702181
    },
    {
        "Station": "Комсомольская",
        "Line": "Кольцевая линия",
        "Status": "действует",
        "AdmArea": "Центральный административный округ",
        "District": "Красносельский район",
        "ID": 80,
        "global_id": 58702182
    },
    {
        "Station": "Сретенский бульвар",
        "Line": "Люблинско-Дмитровская линия",
        "Status": "действует",
        "AdmArea": "Центральный административный округ",
        "District": "Красносельский район",
        "ID": 165,
        "global_id": 58702183
    },
    {
        "Station": "Проспект Вернадского",
        "Line": "Большая кольцевая линия",
        "Status": "строится",
        "AdmArea": "Западный административный округ",
        "District": "район Раменки",
        "ID": 247,
        "global_id": 58702184
    },
    {
        "Station": "Боровицкая",
        "Line": "Серпуховско-Тимирязевская линия",
        "Status": "действует",
        "AdmArea": "Центральный административный округ",
        "District": "район Арбат",
        "ID": 148,
        "global_id": 58702185
    },
    {
        "Station": "Бибирево",
        "Line": "Серпуховско-Тимирязевская линия",
        "Status": "действует",
        "AdmArea": "Северо-Восточный административный округ",
        "District": "район Бибирево",
        "ID": 138,
        "global_id": 58702186
    },
    {
        "Station": "Речной вокзал",
        "Line": "Замоскворецкая линия",
        "Status": "действует",
        "AdmArea": "Северный административный округ",
        "District": "район Левобережный",
        "ID": 39,
        "global_id": 58702187
    },
    {
        "Station": "Люблино",
        "Line": "Люблинско-Дмитровская линия",
        "Status": "действует",
        "AdmArea": "Юго-Восточный административный округ",
        "District": "район Люблино",
        "ID": 173,
        "global_id": 58702188
    },
    {
        "Station": "Бутырская",
        "Line": "Люблинско-Дмитровская линия",
        "Status": "действует",
        "AdmArea": "Северо-Восточный административный округ",
        "District": "Бутырский район",
        "ID": 207,
        "global_id": 58702189
    },
    {
        "Station": "Октябрьское поле",
        "Line": "Таганско-Краснопресненская линия",
        "Status": "действует",
        "AdmArea": "Северо-Западный административный округ",
        "District": "район Щукино",
        "ID": 114,
        "global_id": 58702190
    },
    {
        "Station": "Новокузнецкая",
        "Line": "Замоскворецкая линия",
        "Status": "действует",
        "AdmArea": "Центральный административный округ",
        "District": "район Замоскворечье",
        "ID": 29,
        "global_id": 58702191
    },
    {
        "Station": "Кутузовская",
        "Line": "Филёвская линия",
        "Status": "действует",
        "AdmArea": "Западный административный округ",
        "District": "район Дорогомилово",
        "ID": 66,
        "global_id": 58702192
    },
    {
        "Station": "Тушинская",
        "Line": "Таганско-Краснопресненская линия",
        "Status": "действует",
        "AdmArea": "Северо-Западный административный округ",
        "District": "район Покровское-Стрешнево",
        "ID": 112,
        "global_id": 58702194
    },
    {
        "Station": "Коломенская",
        "Line": "Замоскворецкая линия",
        "Status": "действует",
        "AdmArea": "Южный административный округ",
        "District": "район Нагатино-Садовники",
        "ID": 26,
        "global_id": 58702195
    },
    {
        "Station": "Октябрьская",
        "Line": "Кольцевая линия",
        "Status": "действует",
        "AdmArea": "Центральный административный округ",
        "District": "район Якиманка",
        "ID": 75,
        "global_id": 58702196
    },
    {
        "Station": "Проспект Вернадского",
        "Line": "Сокольническая линия",
        "Status": "действует",
        "AdmArea": "Западный административный округ",
        "District": "район Проспект Вернадского",
        "ID": 18,
        "global_id": 58702197
    },
    {
        "Station": "Нагорная",
        "Line": "Серпуховско-Тимирязевская линия",
        "Status": "действует",
        "AdmArea": "Южный административный округ",
        "District": "Нагорный район",
        "ID": 153,
        "global_id": 58702198
    },
    {
        "Station": "Выставочная",
        "Line": "Филёвская линия",
        "Status": "действует",
        "AdmArea": "Центральный административный округ",
        "District": "Пресненский район",
        "ID": 72,
        "global_id": 58702199
    },
    {
        "Station": "Бунинская аллея",
        "Line": "Бутовская линия Лёгкого метро",
        "Status": "действует",
        "AdmArea": "Юго-Западный административный округ",
        "District": "район Южное Бутово",
        "ID": 186,
        "global_id": 58702200
    },
    {
        "Station": "Рижская",
        "Line": "Калужско-Рижская линия",
        "Status": "действует",
        "AdmArea": "Центральный административный округ",
        "District": "Мещанский район",
        "ID": 92,
        "global_id": 58702201
    },
    {
        "Station": "Новоясеневская",
        "Line": "Калужско-Рижская линия",
        "Status": "действует",
        "AdmArea": "Юго-Западный административный округ",
        "District": "район Ясенево",
        "ID": 109,
        "global_id": 58702203
    },
    {
        "Station": "Бауманская",
        "Line": "Арбатско-Покровская линия",
        "Status": "действует",
        "AdmArea": "Центральный административный округ",
        "District": "Басманный район",
        "ID": 46,
        "global_id": 58702204
    },
    {
        "Station": "Бульвар Рокоссовского",
        "Line": "Сокольническая линия",
        "Status": "действует",
        "AdmArea": "Восточный административный округ",
        "District": "район Богородское",
        "ID": 1,
        "global_id": 58702205
    },
    {
        "Station": "Черкизовская",
        "Line": "Сокольническая линия",
        "Status": "действует",
        "AdmArea": "Восточный административный округ",
        "District": "район Преображенское",
        "ID": 2,
        "global_id": 58702206
    },
    {
        "Station": "Коньково",
        "Line": "Калужско-Рижская линия",
        "Status": "действует",
        "AdmArea": "Юго-Западный административный округ",
        "District": "район Тёплый Стан",
        "ID": 106,
        "global_id": 58702207
    },
    {
        "Station": "Менделеевская",
        "Line": "Серпуховско-Тимирязевская линия",
        "Status": "действует",
        "AdmArea": "Центральный административный округ",
        "District": "Тверской район",
        "ID": 145,
        "global_id": 58702208
    },
    {
        "Station": "улица Дмитриевского",
        "Line": "Некрасовская линия",
        "Status": "действует",
        "AdmArea": "Восточный административный округ",
        "District": "район Косино-Ухтомский",
        "ID": 227,
        "global_id": 58702209
    },
    {
        "Station": "Электрозаводская",
        "Line": "Некрасовская линия",
        "Status": "действует",
        "AdmArea": "Восточный административный округ",
        "District": "район Соколиная Гора",
        "ID": 259,
        "global_id": 58702210
    },
    {
        "Station": "Раменки",
        "Line": "Солнцевская линия",
        "Status": "действует",
        "AdmArea": "Западный административный округ",
        "District": "район Раменки",
        "ID": 225,
        "global_id": 58702211
    },
    {
        "Station": "Смоленская",
        "Line": "Арбатско-Покровская линия",
        "Status": "действует",
        "AdmArea": "Центральный административный округ",
        "District": "район Арбат",
        "ID": 50,
        "global_id": 58702212
    },
    {
        "Station": "Баррикадная",
        "Line": "Таганско-Краснопресненская линия",
        "Status": "действует",
        "AdmArea": "Центральный административный округ",
        "District": "Пресненский район",
        "ID": 118,
        "global_id": 58702213
    },
    {
        "Station": "Багратионовская",
        "Line": "Филёвская линия",
        "Status": "действует",
        "AdmArea": "Западный административный округ",
        "District": "район Филёвский Парк",
        "ID": 64,
        "global_id": 58702214
    },
    {
        "Station": "Бабушкинская",
        "Line": "Калужско-Рижская линия",
        "Status": "действует",
        "AdmArea": "Северо-Восточный административный округ",
        "District": "Бабушкинский район",
        "ID": 87,
        "global_id": 58702215
    },
    {
        "Station": "Кропоткинская",
        "Line": "Сокольническая линия",
        "Status": "действует",
        "AdmArea": "Центральный административный округ",
        "District": "район Хамовники",
        "ID": 12,
        "global_id": 58702216
    },
    {
        "Station": "Проспект Мира",
        "Line": "Калужско-Рижская линия",
        "Status": "действует",
        "AdmArea": "Центральный административный округ",
        "District": "Мещанский район",
        "ID": 93,
        "global_id": 58702217
    },
    {
        "Station": "Сухаревская",
        "Line": "Калужско-Рижская линия",
        "Status": "действует",
        "AdmArea": "Центральный административный округ",
        "District": "Красносельский район",
        "ID": 94,
        "global_id": 58702218
    },
    {
        "Station": "Тимирязевская",
        "Line": "Московская монорельсовая транспортная система",
        "Status": "действует",
        "AdmArea": "Северо-Восточный административный округ",
        "District": "Бутырский район",
        "ID": 192,
        "global_id": 58702219
    },
    {
        "Station": "Красные ворота",
        "Line": "Сокольническая линия",
        "Status": "действует",
        "AdmArea": "Центральный административный округ",
        "District": "Красносельский район",
        "ID": 7,
        "global_id": 58702220
    },
    {
        "Station": "Печатники",
        "Line": "Люблинско-Дмитровская линия",
        "Status": "действует",
        "AdmArea": "Юго-Восточный административный округ",
        "District": "район Печатники",
        "ID": 171,
        "global_id": 58702221
    },
    {
        "Station": "Шереметьевская",
        "Line": "Большая кольцевая линия",
        "Status": "строится",
        "AdmArea": "Северо-Восточный административный округ",
        "District": "район Марьина Роща",
        "ID": 262,
        "global_id": 58702222
    },
    {
        "Station": "Рязанский проспект",
        "Line": "Таганско-Краснопресненская линия",
        "Status": "действует",
        "AdmArea": "Юго-Восточный административный округ",
        "District": "Рязанский район",
        "ID": 127,
        "global_id": 58702223
    },
    {
        "Station": "Римская",
        "Line": "Люблинско-Дмитровская линия",
        "Status": "действует",
        "AdmArea": "Центральный административный округ",
        "District": "Таганский район",
        "ID": 167,
        "global_id": 58702224
    },
    {
        "Station": "Александровский сад",
        "Line": "Филёвская линия",
        "Status": "действует",
        "AdmArea": "Центральный административный округ",
        "District": "Тверской район",
        "ID": 71,
        "global_id": 58702225
    },
    {
        "Station": "Ленинский проспект",
        "Line": "Калужско-Рижская линия",
        "Status": "действует",
        "AdmArea": "Южный административный округ",
        "District": "Донской район",
        "ID": 100,
        "global_id": 58702226
    },
    {
        "Station": "Чеховская",
        "Line": "Серпуховско-Тимирязевская линия",
        "Status": "действует",
        "AdmArea": "Центральный административный округ",
        "District": "Тверской район",
        "ID": 147,
        "global_id": 58702227
    },
    {
        "Station": "Печатники",
        "Line": "Большая кольцевая линия",
        "Status": "строится",
        "AdmArea": "Юго-Восточный административный округ",
        "District": "район Печатники",
        "ID": 254,
        "global_id": 58702228
    },
    {
        "Station": "Щёлковская",
        "Line": "Арбатско-Покровская линия",
        "Status": "действует",
        "AdmArea": "Восточный административный округ",
        "District": "район Гольяново",
        "ID": 40,
        "global_id": 58702229
    },
    {
        "Station": "Ховрино",
        "Line": "Замоскворецкая линия",
        "Status": "действует",
        "AdmArea": "Северный административный округ",
        "District": "район Ховрино",
        "ID": 199,
        "global_id": 58702230
    },
    {
        "Station": "Шелепиха",
        "Line": "Московское центральное кольцо",
        "Status": "действует",
        "AdmArea": "Центральный административный округ",
        "District": "Пресненский район",
        "ID": 284,
        "global_id": 277904735
    },
    {
        "Station": "Площадь Гагарина",
        "Line": "Московское центральное кольцо",
        "Status": "действует",
        "AdmArea": "Юго-Западный административный округ",
        "District": "Гагаринский район",
        "ID": 288,
        "global_id": 277904736
    },
    {
        "Station": "Лихоборы",
        "Line": "Московское центральное кольцо",
        "Status": "действует",
        "AdmArea": "Северный административный округ",
        "District": "район Коптево",
        "ID": 280,
        "global_id": 277904737
    },
    {
        "Station": "Автозаводская",
        "Line": "Московское центральное кольцо",
        "Status": "действует",
        "AdmArea": "Южный административный округ",
        "District": "Даниловский район",
        "ID": 292,
        "global_id": 277904738
    },
    {
        "Station": "Шоссе Энтузиастов",
        "Line": "Московское центральное кольцо",
        "Status": "действует",
        "AdmArea": "Восточный административный округ",
        "District": "район Соколиная Гора",
        "ID": 271,
        "global_id": 277904739
    },
    {
        "Station": "Хорошёво",
        "Line": "Московское центральное кольцо",
        "Status": "действует",
        "AdmArea": "Северный административный округ",
        "District": "Хорошёвский район",
        "ID": 283,
        "global_id": 277904740
    },
    {
        "Station": "Соколиная Гора",
        "Line": "Московское центральное кольцо",
        "Status": "действует",
        "AdmArea": "Восточный административный округ",
        "District": "район Соколиная Гора",
        "ID": 296,
        "global_id": 277904741
    },
    {
        "Station": "Локомотив",
        "Line": "Московское центральное кольцо",
        "Status": "действует",
        "AdmArea": "Восточный административный округ",
        "District": "район Преображенское",
        "ID": 273,
        "global_id": 277904742
    },
    {
        "Station": "Кутузовская",
        "Line": "Московское центральное кольцо",
        "Status": "действует",
        "AdmArea": "Западный административный округ",
        "District": "район Дорогомилово",
        "ID": 286,
        "global_id": 277904743
    },
    {
        "Station": "Балтийская",
        "Line": "Московское центральное кольцо",
        "Status": "действует",
        "AdmArea": "Северный административный округ",
        "District": "Войковский район",
        "ID": 281,
        "global_id": 277904744
    },
    {
        "Station": "Владыкино",
        "Line": "Московское центральное кольцо",
        "Status": "действует",
        "AdmArea": "Северо-Восточный административный округ",
        "District": "район Марфино",
        "ID": 278,
        "global_id": 277904745
    },
    {
        "Station": "Угрешская",
        "Line": "Московское центральное кольцо",
        "Status": "действует",
        "AdmArea": "Юго-Восточный административный округ",
        "District": "район Печатники",
        "ID": 293,
        "global_id": 277904746
    },
    {
        "Station": "Ботанический сад",
        "Line": "Московское центральное кольцо",
        "Status": "действует",
        "AdmArea": "Северо-Восточный административный округ",
        "District": "район Свиблово",
        "ID": 277,
        "global_id": 277904747
    },
    {
        "Station": "Андроновка",
        "Line": "Московское центральное кольцо",
        "Status": "действует",
        "AdmArea": "Восточный административный округ",
        "District": "район Перово",
        "ID": 270,
        "global_id": 277904748
    },
    {
        "Station": "Дубровка",
        "Line": "Московское центральное кольцо",
        "Status": "действует",
        "AdmArea": "Юго-Восточный административный округ",
        "District": "Южнопортовый район",
        "ID": 297,
        "global_id": 277904749
    },
    {
        "Station": "Измайлово",
        "Line": "Московское центральное кольцо",
        "Status": "действует",
        "AdmArea": "Восточный административный округ",
        "District": "район Соколиная Гора",
        "ID": 272,
        "global_id": 277904750
    },
    {
        "Station": "Лужники",
        "Line": "Московское центральное кольцо",
        "Status": "действует",
        "AdmArea": "Центральный административный округ",
        "District": "район Хамовники",
        "ID": 287,
        "global_id": 277904751
    },
    {
        "Station": "Нижегородская",
        "Line": "Московское центральное кольцо",
        "Status": "действует",
        "AdmArea": "Юго-Восточный административный округ",
        "District": "Нижегородский район",
        "ID": 295,
        "global_id": 277904752
    },
    {
        "Station": "Новохохловская",
        "Line": "Московское центральное кольцо",
        "Status": "действует",
        "AdmArea": "Юго-Восточный административный округ",
        "District": "Нижегородский район",
        "ID": 294,
        "global_id": 277904753
    },
    {
        "Station": "ЗИЛ",
        "Line": "Московское центральное кольцо",
        "Status": "действует",
        "AdmArea": "Южный административный округ",
        "District": "Даниловский район",
        "ID": 291,
        "global_id": 277904754
    },
    {
        "Station": "Верхние Котлы",
        "Line": "Московское центральное кольцо",
        "Status": "действует",
        "AdmArea": "Южный административный округ",
        "District": "Нагорный район",
        "ID": 290,
        "global_id": 277904755
    },
    {
        "Station": "Белокаменная",
        "Line": "Московское центральное кольцо",
        "Status": "действует",
        "AdmArea": "Восточный административный округ",
        "District": "район Богородское",
        "ID": 275,
        "global_id": 277904756
    },
    {
        "Station": "Ростокино",
        "Line": "Московское центральное кольцо",
        "Status": "действует",
        "AdmArea": "Северо-Восточный административный округ",
        "District": "район Ростокино",
        "ID": 276,
        "global_id": 277904757
    },
    {
        "Station": "Деловой центр",
        "Line": "Московское центральное кольцо",
        "Status": "действует",
        "AdmArea": "Центральный административный округ",
        "District": "Пресненский район",
        "ID": 285,
        "global_id": 277904758
    },
    {
        "Station": "Бульвар Рокоссовского",
        "Line": "Московское центральное кольцо",
        "Status": "действует",
        "AdmArea": "Восточный административный округ",
        "District": "район Богородское",
        "ID": 274,
        "global_id": 277904759
    },
    {
        "Station": "Стрешнево",
        "Line": "Московское центральное кольцо",
        "Status": "действует",
        "AdmArea": "Северный административный округ",
        "District": "район Сокол",
        "ID": 282,
        "global_id": 277904760
    },
    {
        "Station": "Крымская",
        "Line": "Московское центральное кольцо",
        "Status": "действует",
        "AdmArea": "Южный административный округ",
        "District": "Донской район",
        "ID": 289,
        "global_id": 277904761
    },
    {
        "Station": "Окружная",
        "Line": "Московское центральное кольцо",
        "Status": "действует",
        "AdmArea": "Северный административный округ",
        "District": "Тимирязевский район",
        "ID": 279,
        "global_id": 277904762
    },
    {
        "Station": "Петровский парк",
        "Line": "Большая кольцевая линия",
        "Status": "действует",
        "AdmArea": "Северный административный округ",
        "District": "район Аэропорт",
        "ID": 298,
        "global_id": 696737361
    },
    {
        "Station": "ЦСКА",
        "Line": "Большая кольцевая линия",
        "Status": "действует",
        "AdmArea": "Северный административный округ",
        "District": "Хорошёвский район",
        "ID": 299,
        "global_id": 696742167
    },
    {
        "Station": "Шелепиха",
        "Line": "Большая кольцевая линия",
        "Status": "действует",
        "AdmArea": "Центральный административный округ",
        "District": "Пресненский район",
        "ID": 300,
        "global_id": 696749112
    },
    {
        "Station": "Озёрная",
        "Line": "Солнцевская линия",
        "Status": "действует",
        "AdmArea": "Западный административный округ",
        "District": "район Очаково-Матвеевское",
        "ID": 301,
        "global_id": 886123736
    },
    {
        "Station": "Говорово",
        "Line": "Солнцевская линия",
        "Status": "действует",
        "AdmArea": "Западный административный округ",
        "District": "район Солнцево",
        "ID": 302,
        "global_id": 886123738
    },
    {
        "Station": "Беломорская",
        "Line": "Замоскворецкая линия",
        "Status": "действует",
        "AdmArea": "Северный административный округ",
        "District": "район Левобережный",
        "ID": 303,
        "global_id": 904474367
    },
    {
        "Station": "Зорге",
        "Line": "Московское центральное кольцо",
        "Status": "действует",
        "AdmArea": "Северо-Западный административный округ",
        "District": "район Хорошёво-Мнёвники",
        "ID": 304,
        "global_id": 905932318
    },
    {
        "Station": "Панфиловская",
        "Line": "Московское центральное кольцо",
        "Status": "действует",
        "AdmArea": "Северо-Западный административный округ",
        "District": "район Щукино",
        "ID": 305,
        "global_id": 905932372
    },
    {
        "Station": "Коптево",
        "Line": "Московское центральное кольцо",
        "Status": "действует",
        "AdmArea": "Северный административный округ",
        "District": "район Коптево",
        "ID": 306,
        "global_id": 905932373
    },
    {
        "Station": "Савеловская",
        "Line": "Большая кольцевая линия",
        "Status": "действует",
        "AdmArea": "Северный административный округ",
        "District": "Савёловский район",
        "ID": 307,
        "global_id": 906044097
    },
    {
        "Station": "Филатов луг",
        "Line": "Сокольническая линия",
        "Status": "действует",
        "AdmArea": "Новомосковский административный округ",
        "District": "поселение Сосенское",
        "ID": 308,
        "global_id": 930063626
    },
    {
        "Station": "Прокшино",
        "Line": "Сокольническая линия",
        "Status": "действует",
        "AdmArea": "Новомосковский административный округ",
        "District": "поселение Сосенское",
        "ID": 309,
        "global_id": 930063627
    },
    {
        "Station": "Ольховая",
        "Line": "Сокольническая линия",
        "Status": "действует",
        "AdmArea": "Новомосковский административный округ",
        "District": "поселение Сосенское",
        "ID": 310,
        "global_id": 930063628
    },
    {
        "Station": "Коммунарка",
        "Line": "Сокольническая линия",
        "Status": "действует",
        "AdmArea": "Новомосковский административный округ",
        "District": "поселение Сосенское",
        "ID": 311,
        "global_id": 930063629
    },
    {
        "Station": "Стромынка",
        "Line": "Большая кольцевая линия",
        "Status": "строится",
        "AdmArea": "Восточный административный округ",
        "District": "район Сокольники",
        "ID": 314,
        "global_id": 1045820891
    },
    {
        "Station": "Лефортово",
        "Line": "Некрасовская линия",
        "Status": "действует",
        "AdmArea": "Юго-Восточный административный округ",
        "District": "район Лефортово",
        "ID": 315,
        "global_id": 1045820903
    },
    {
        "Station": "Зюзино",
        "Line": "Большая кольцевая линия",
        "Status": "строится",
        "AdmArea": "Юго-Западный административный округ",
        "District": "район Зюзино",
        "ID": 312,
        "global_id": 1045820911
    },
    {
        "Station": "Народное Ополчение",
        "Line": "Большая кольцевая линия",
        "Status": "действует",
        "AdmArea": "Северо-Западный административный округ",
        "District": "район Хорошёво-Мнёвники",
        "ID": 316,
        "global_id": 1103704696
    },
    {
        "Station": "Мнёвники",
        "Line": "Большая кольцевая линия",
        "Status": "действует",
        "AdmArea": "Северо-Западный административный округ",
        "District": "район Хорошёво-Мнёвники",
        "ID": 317,
        "global_id": 1103706188
    }
]